{
  "access_token": "eyJhbGciOiJIUzI1NiIsInR5cCI6IkpXVCJ9.eyJ1c2VybmFtZSI6ImpvaG4iLCJpYXQiOjE2NzIwNDI4OTQsImV4cCI6MTY3MjA0NjQ5NH0.V9dVjtka434kFPwom_ZN3O2swWI7isyoRU00BFInBHA",
  "id": 1,
  "phone": "513413470",
  "role": "PERSON",
  "username": "john"
}
